{
  "defaultSeverity": "error",
  "extends": [
    "tslint:recommended"
  ],
  "rulesDirectory": [],
  "linterOptions": {
    "exclude": ["contract-abis/**", "*.json", "**/*.json"]
  },
  "rules": {
    "align": {
      "options": ["parameters", "statements", "members", "elements"]
    },
    "arrow-parens": {
      "options": "ban-single-arg-parens"
    },
    "curly": {
      "options": "as-needed"
    },
    "indent": {
      "options": ["spaces", 2]
    },
    "interface-name": {
      "options": ["never-prefix"]
    },
    "max-classes-per-file": {
      "options": 4
    },
    "max-line-length": {
      "options": 150
    },
    "member-access": true,
    "member-ordering": {
      "options": {
        "order": "statics-first"
      }
    },
    "object-literal-key-quotes": {
      "options": "as-needed"
    },
    "object-literal-sort-keys": false,
    "object-literal-shorthand": {"options":"never"},
    "ordered-imports": false,
    "quotemark": {
      "options": ["single", "avoid-template"]
    },
    "radix": true,
    "semicolon": {
      "options": ["always"]
    },
    "space-before-function-paren": {
      "options": {
        "anonymous": "never",
        "asyncArrow": "always",
        "constructor": "never",
        "method": "never",
        "named": "never"
      }
    },
    "trailing-comma": {
      "options": {
        "esSpecCompliant": true,
        "multiline": "always",
        "singleline": "never"
      }
    },
    "triple-equals": {
      "options": ["allow-null-check"]
    },
    "variable-name": {
      "options": ["ban-keywords", "check-format"]
    }
  }
}
